Big Data in R - IMDB database
…
title_ratings <- title_ratings %>%
  select(tconst, averageRating)

The first dataset “title_akas” contains information about the movie titles. The second dataset “title_basics” contains more detailed data about the individual movies: release year, runtime in minutes and genres. The final dataset “title.ratings” contains the average ratings for each movie.

We join these three tables together with the left_join function, which joins two tables together so that all matching rows are combined together and all observations from the first table are returned.

imdb <- title_akas %>%
  left_join(title_basics, by = "tconst") %>%
  left_join(title_ratings, by = "tconst")

imdb

## # A tibble: 979,823 x 6
##    tconst   title              startYear runtimeMinutes genres     averageRating
##    <chr>    <chr>                  <dbl>          <dbl> <chr>              <dbl>
##  1 tt00000~ Carmencita              1894              1 Documenta~           5.7
##  2 tt00000~ The Clown and His~      1892              5 Animation~           6.1
##  3 tt00000~ Blacksmithing Sce~      1893              1 Comedy,Sh~           6.1
##  4 tt00000~ Blacksmith Scene ~      1893              1 Comedy,Sh~           6.1
##  5 tt00000~ Blacksmithing           1893              1 Comedy,Sh~           6.1
##  6 tt00000~ Blacksmith Scene        1893              1 Comedy,Sh~           6.1
##  7 tt00000~ Chinese Opium Den       1894              1 Short                5.3
##  8 tt00000~ Corbett and Court~      1894              1 Short,Spo~           5.4
##  9 tt00000~ The Corbett-Court~      1894              1 Short,Spo~           5.4
## 10 tt00000~ Jim Corbett vs. P~      1894              1 Short,Spo~           5.4
## # ... with 979,813 more rows
…
## # A tibble: 1 x 2
##   average_runtime average_rating
##             <dbl>          <dbl>
## 1            48.8           6.68

The average runtime is 49 minutes and average rating is 6.68.

What about genres? It would be nice to know how many genres we have in total.

imdb_genres %>%
  summarise(genres = unique(genre))

## # A tibble: 28 x 1
##    genres     
##    <chr>      
##  1 Documentary
##  2 Short      
##  3 Animation  
##  4 Comedy     
##  5 Sport      
##  6 Romance    
##  7 Drama      
##  8 Fantasy    
##  9 Horror     
## 10 News       
## # ... with 18 more rows
…
